{
  "filesize": "",
  "keyword": "",
  "list": [
    {
      "ID": "e0a8baaa6de140e89a301820875b7f74",
      "EPS_NAME": "金华市蓝丝雨化妆品有限公司",
      "PRODUCT_SN": "浙妆20160283",
      "CITY_CODE": null,
      "XK_COMPLETE_DATE": {
        "date": 8,
        "day": 5,
        "hours": 0,
        "minutes": 0,
        "month": 0,
        "nanos": 0,
        "seconds": 0,
        "time": 1610035200000,
        "timezoneOffset": -480,
        "year": 121
      },
      "XK_DATE": "2026-01-07",
      "QF_MANAGER_NAME": "浙江省药品监督管理局",
      "BUSINESS_LICENSE_NUMBER": "91330701595767744C",
      "XC_DATE": "2021-01-08",
      "NUM_": 1
    },
    {
      "ID": "b77a96df470849a5bf81ab78f23a3cf3",
      "EPS_NAME": "广东魅佳化妆品有限公司",
      "PRODUCT_SN": "粤妆20170335",
      "CITY_CODE": null,
      "XK_COMPLETE_DATE": {
        "date": 8,
        "day": 5,
        "hours": 0,
        "minutes": 0,
        "month": 0,
        "nanos": 0,
        "seconds": 0,
        "time": 1610035200000,
        "timezoneOffset": -480,
        "year": 121
      },
      "XK_DATE": "2022-03-20",
      "QF_MANAGER_NAME": "广东省药品监督管理局",
      "BUSINESS_LICENSE_NUMBER": "91445100MA4UR1AW7P",
      "XC_DATE": "2021-01-08",
      "NUM_": 2
    },
    {
      "ID": "97ffc5babfe6453b89f9a0f2c999d72d",
      "EPS_NAME": "广州市汉邦化妆品有限公司",
      "PRODUCT_SN": "粤妆20170101",
      "CITY_CODE": null,
      "XK_COMPLETE_DATE": {
        "date": 8,
        "day": 5,
        "hours": 0,
        "minutes": 0,
        "month": 0,
        "nanos": 0,
        "seconds": 0,
        "time": 1610035200000,
        "timezoneOffset": -480,
        "year": 121
      },
      "XK_DATE": "2026-01-07",
      "QF_MANAGER_NAME": "广东省药品监督管理局",
      "BUSINESS_LICENSE_NUMBER": "91440111665918166Q",
      "XC_DATE": "2021-01-08",
      "NUM_": 3
    },
    {
      "ID": "74f0a08c4f014b5a9e5996c26e45f9ad",
      "EPS_NAME": "广州长生康生物科技有限公司",
      "PRODUCT_SN": "粤妆20160601",
      "CITY_CODE": null,
      "XK_COMPLETE_DATE": {
        "date": 8,
        "day": 5,
        "hours": 0,
        "minutes": 0,
        "month": 0,
        "nanos": 0,
        "seconds": 0,
        "time": 1610035200000,
        "timezoneOffset": -480,
        "year": 121
      },
      "XK_DATE": "2026-01-07",
      "QF_MANAGER_NAME": "广东省药品监督管理局",
      "BUSINESS_LICENSE_NUMBER": "914401146777673932",
      "XC_DATE": "2021-01-08",
      "NUM_": 4
    },
    {
      "ID": "7f01dbc5a1334fdebd0072a25f566727",
      "EPS_NAME": "广州汇粹化妆品有限公司",
      "PRODUCT_SN": "粤妆20160321",
      "CITY_CODE": null,
      "XK_COMPLETE_DATE": {
        "date": 8,
        "day": 5,
        "hours": 0,
        "minutes": 0,
        "month": 0,
        "nanos": 0,
        "seconds": 0,
        "time": 1610035200000,
        "timezoneOffset": -480,
        "year": 121
      },
      "XK_DATE": "2023-12-09",
      "QF_MANAGER_NAME": "广东省药品监督管理局",
      "BUSINESS_LICENSE_NUMBER": "914401110936503276",
      "XC_DATE": "2021-01-08",
      "NUM_": 5
    },
    {
      "ID": "cc1d49b7c0f841e9a659b208cc04238a",
      "EPS_NAME": "广州市暨源生物科技有限公司",
      "PRODUCT_SN": "粤妆20160235",
      "CITY_CODE": null,
      "XK_COMPLETE_DATE": {
        "date": 8,
        "day": 5,
        "hours": 0,
        "minutes": 0,
        "month": 0,
        "nanos": 0,
        "seconds": 0,
        "time": 1610035200000,
        "timezoneOffset": -480,
        "year": 121
      },
      "XK_DATE": "2026-01-07",
      "QF_MANAGER_NAME": "广东省药品监督管理局",
      "BUSINESS_LICENSE_NUMBER": "91440113691531520M",
      "XC_DATE": "2021-01-08",
      "NUM_": 6
    },
    {
      "ID": "d414ba7b40844e5baccab5a81be0e5c5",
      "EPS_NAME": "广州莱倩化妆品有限公司",
      "PRODUCT_SN": "粤妆20160011",
      "CITY_CODE": null,
      "XK_COMPLETE_DATE": {
        "date": 8,
        "day": 5,
        "hours": 0,
        "minutes": 0,
        "month": 0,
        "nanos": 0,
        "seconds": 0,
        "time": 1610035200000,
        "timezoneOffset": -480,
        "year": 121
      },
      "XK_DATE": "2026-01-07",
      "QF_MANAGER_NAME": "广东省药品监督管理局",
      "BUSINESS_LICENSE_NUMBER": "91440111797361697X",
      "XC_DATE": "2021-01-08",
      "NUM_": 7
    },
    {
      "ID": "d6c5d6189afa489aa6d3c6ed913449a8",
      "EPS_NAME": "江苏博后智造生物科技有限公司",
      "PRODUCT_SN": "苏妆20200027",
      "CITY_CODE": "92",
      "XK_COMPLETE_DATE": {
        "date": 8,
        "day": 5,
        "hours": 0,
        "minutes": 0,
        "month": 0,
        "nanos": 0,
        "seconds": 0,
        "time": 1610035200000,
        "timezoneOffset": -480,
        "year": 121
      },
      "XK_DATE": "2025-12-21",
      "QF_MANAGER_NAME": "江苏省药品监督管理局",
      "BUSINESS_LICENSE_NUMBER": "91321291MA1YEANY8G",
      "XC_DATE": "2021-01-08",
      "NUM_": 8
    },
    {
      "ID": "2c6260fb9c57420b85e94c885b589972",
      "EPS_NAME": "苏州元美科技有限公司",
      "PRODUCT_SN": "苏妆20200008",
      "CITY_CODE": "84",
      "XK_COMPLETE_DATE": {
        "date": 8,
        "day": 5,
        "hours": 0,
        "minutes": 0,
        "month": 0,
        "nanos": 0,
        "seconds": 0,
        "time": 1610035200000,
        "timezoneOffset": -480,
        "year": 121
      },
      "XK_DATE": "2025-06-01",
      "QF_MANAGER_NAME": "苏州市食品药品监督管理局",
      "BUSINESS_LICENSE_NUMBER": "91320594MA20LL6439",
      "XC_DATE": "2021-01-08",
      "NUM_": 9
    },
    {
      "ID": "57520e9518f84e3bbbfd7a65d5ee48f2",
      "EPS_NAME": "江苏蒂姬尔生物材料有限公司",
      "PRODUCT_SN": "苏妆20170013",
      "CITY_CODE": "92",
      "XK_COMPLETE_DATE": {
        "date": 8,
        "day": 5,
        "hours": 0,
        "minutes": 0,
        "month": 0,
        "nanos": 0,
        "seconds": 0,
        "time": 1610035200000,
        "timezoneOffset": -480,
        "year": 121
      },
      "XK_DATE": "2022-06-01",
      "QF_MANAGER_NAME": "江苏省药品监督管理局",
      "BUSINESS_LICENSE_NUMBER": "91321291346484487R",
      "XC_DATE": "2021-01-08",
      "NUM_": 10
    },
    {
      "ID": "5ceda35ff39d4442be7c082db4ae4945",
      "EPS_NAME": "纽澳护理用品(泰州)有限公司",
      "PRODUCT_SN": "苏妆20160081",
      "CITY_CODE": "92",
      "XK_COMPLETE_DATE": {
        "date": 8,
        "day": 5,
        "hours": 0,
        "minutes": 0,
        "month": 0,
        "nanos": 0,
        "seconds": 0,
        "time": 1610035200000,
        "timezoneOffset": -480,
        "year": 121
      },
      "XK_DATE": "2023-12-04",
      "QF_MANAGER_NAME": "江苏省药品监督管理局",
      "BUSINESS_LICENSE_NUMBER": "91321200074657400D",
      "XC_DATE": "2021-01-08",
      "NUM_": 11
    },
    {
      "ID": "e41308a5e0a740258e6c28ec49524234",
      "EPS_NAME": "广东名女人化妆品有限公司",
      "PRODUCT_SN": "粤妆20160746",
      "CITY_CODE": null,
      "XK_COMPLETE_DATE": {
        "date": 7,
        "day": 4,
        "hours": 0,
        "minutes": 0,
        "month": 0,
        "nanos": 0,
        "seconds": 0,
        "time": 1609948800000,
        "timezoneOffset": -480,
        "year": 121
      },
      "XK_DATE": "2021-09-20",
      "QF_MANAGER_NAME": "广东省药品监督管理局",
      "BUSINESS_LICENSE_NUMBER": "91440513597405659U",
      "XC_DATE": "2021-01-07",
      "NUM_": 12
    },
    {
      "ID": "3dcb6dbdbf214cec975e8441fbb18ca2",
      "EPS_NAME": "广东至臻生物医药有限公司",
      "PRODUCT_SN": "粤妆20210002",
      "CITY_CODE": null,
      "XK_COMPLETE_DATE": {
        "date": 6,
        "day": 3,
        "hours": 0,
        "minutes": 0,
        "month": 0,
        "nanos": 0,
        "seconds": 0,
        "time": 1609862400000,
        "timezoneOffset": -480,
        "year": 121
      },
      "XK_DATE": "2026-01-05",
      "QF_MANAGER_NAME": "广东省药品监督管理局",
      "BUSINESS_LICENSE_NUMBER": "91440101MA5D2R2B5G",
      "XC_DATE": "2021-01-06",
      "NUM_": 13
    },
    {
      "ID": "53e6018b5f5b4d20b8b8366b07cc4ff7",
      "EPS_NAME": "国源国药（广东）科技有限公司",
      "PRODUCT_SN": "粤妆20200094",
      "CITY_CODE": null,
      "XK_COMPLETE_DATE": {
        "date": 6,
        "day": 3,
        "hours": 0,
        "minutes": 0,
        "month": 0,
        "nanos": 0,
        "seconds": 0,
        "time": 1609862400000,
        "timezoneOffset": -480,
        "year": 121
      },
      "XK_DATE": "2025-06-16",
      "QF_MANAGER_NAME": "广东省药品监督管理局",
      "BUSINESS_LICENSE_NUMBER": "91442000MA53FGJF8P",
      "XC_DATE": "2021-01-06",
      "NUM_": 14
    },
    {
      "ID": "a00cf752eef34a15abfcaf0d25312c8b",
      "EPS_NAME": "广州市元旭药业有限公司",
      "PRODUCT_SN": "粤妆20170595",
      "CITY_CODE": null,
      "XK_COMPLETE_DATE": {
        "date": 6,
        "day": 3,
        "hours": 0,
        "minutes": 0,
        "month": 0,
        "nanos": 0,
        "seconds": 0,
        "time": 1609862400000,
        "timezoneOffset": -480,
        "year": 121
      },
      "XK_DATE": "2026-01-05",
      "QF_MANAGER_NAME": "广东省药品监督管理局",
      "BUSINESS_LICENSE_NUMBER": "91440101MA59N2QF3M",
      "XC_DATE": "2021-01-06",
      "NUM_": 15
    }
  ],
  "orderBy": "createDate",
  "orderType": "desc",
  "pageCount": 364,
  "pageNumber": 1,
  "pageSize": 15,
  "property": "",
  "totalCount": 5449
}